{
  "AWSEBDockerrunVersion": 2,
  "containerDefinitions": [
    {
      "name": "findem",
      "image": "434875166128.dkr.ecr.us-east-1.amazonaws.com/msts/findem:2.0.11",
      "essential": true,
      "memory": 512,
      "portMappings": [
        {
          "hostPort": 80,
          "containerPort": 3000
        }
      ],
      "logConfiguration": {
        "logDriver": "awslogs",
        "options": {
          "awslogs-group": "findem-prod",
          "awslogs-region": "us-east-1",
          "awslogs-stream-prefix": "findem"
        }
      }
    }
  ]
}
